Regression modelling of self-reported depression diagnosis
…
Model controlling for demographic, socioeconomic, and health
variables

full_mod_depr = svyglm(depression ~ sex + children + # exposures
           race + age + marital_status + # demographic covariates
           education + income + employment + # socioeconomic covariates
           general_health + exercise, # health-related covariates
       brfss_design,
       family = quasibinomial())  

full_mod_depr %>% broom::tidy(exponentiate=T, conf.int = T, conf.level=0.95)

## # A tibble: 21 × 7
##    term                  estimate std.error statistic   p.value conf.low conf.…¹
##    <chr>                    <dbl>     <dbl>     <dbl>     <dbl>    <dbl>   <dbl>
##  1 (Intercept)              0.107    0.0657    -34.1  4.40e-254   0.0937   0.121
##  2 sexfemale                2.07     0.0218     33.2  2.27e-241   1.98     2.16 
##  3 childrenone or two       0.892    0.0281     -4.09 4.41e-  5   0.844    0.942
##  4 childrenthree or more    0.850    0.0457     -3.55 3.79e-  4   0.777    0.930
##  5 raceblack                0.443    0.0377    -21.6  3.26e-103   0.412    0.477
##  6 raceasian                0.342    0.0970    -11.1  1.73e- 28   0.283    0.413
##  7 racehispanic             0.430    0.0438    -19.3  1.48e- 82   0.395    0.469
##  8 raceother                0.787    0.0466     -5.15 2.67e-  7   0.718    0.862
##  9 age30-49                 0.843    0.0334     -5.12 3.06e-  7   0.789    0.900
## 10 age50-64                 0.568    0.0344    -16.5  8.90e- 61   0.531    0.608
## # … with 11 more rows, and abbreviated variable name ¹​conf.high
…
