Regression modelling of number of days with bad mental health
…
Model controlling for demographic, socioeconomic, and health
variables

svyglm(mh_cat3 ~ sex + children + # exposures
           race + age + marital_status + # demographic covariates
           education + income + employment + # socioeconomic covariates
           general_health + exercise, # health-related covariates
       brfss_design,
       family = quasibinomial())  %>%
  broom::tidy(exponentiate=T, conf.int = T, conf.level=0.95)

## # A tibble: 21 × 7
##    term                  estimate std.error statistic   p.value conf.low conf.…¹
##    <chr>                    <dbl>     <dbl>     <dbl>     <dbl>    <dbl>   <dbl>
##  1 (Intercept)              0.392    0.0551   -17.0   5.02e- 65    0.351   0.436
##  2 sexfemale                1.86     0.0187    33.2   9.89e-242    1.79    1.93 
##  3 childrenone or two       0.891    0.0244    -4.71  2.49e-  6    0.850   0.935
##  4 childrenthree or more    0.791    0.0389    -6.02  1.74e-  9    0.733   0.854
##  5 raceblack                0.744    0.0300    -9.86  6.03e- 23    0.701   0.789
##  6 raceasian                0.652    0.0683    -6.26  3.96e- 10    0.571   0.746
##  7 racehispanic             0.571    0.0330   -17.0   1.19e- 64    0.535   0.609
##  8 raceother                0.983    0.0407    -0.410 6.82e-  1    0.908   1.07 
##  9 age30-49                 0.607    0.0297   -16.8   2.65e- 63    0.572   0.643
## 10 age50-64                 0.296    0.0307   -39.7   0            0.279   0.314
## # … with 11 more rows, and abbreviated variable name ¹​conf.high
…
